[
    {
        "_id": 1,
        "bookmarks_title": "Norway newcomer Wellesley confirms North Sea oil and gas find.",
        "bookmarks_para": "Norwegian independent Wellesley Petroleum said Monday appraisal drilling had confirmed a sizable oil and gas find near the North Sea Fram field, which feeds Troll oil flows.",
        "bookmarks_location": "Location",
        "bookmarks_date": "MM/DD/YYYY",
        "bookmarks_time": "11:11"
    },
    {
        "_id": 2,
        "bookmarks_title": "Norway newcomer Wellesley confirms North Sea oil and gas find.",
        "bookmarks_para": "Norwegian independent Wellesley Petroleum said Monday appraisal drilling had confirmed a sizable oil and gas find near the North Sea Fram field, which feeds Troll oil flows.",
        "bookmarks_location": "Location",
        "bookmarks_date": "MM/DD/YYYY",
        "bookmarks_time": "11:11"
    },
    {
        "_id": 3,
        "bookmarks_title": "Norway newcomer Wellesley confirms North Sea oil and gas find.",
        "bookmarks_para": "Norwegian independent Wellesley Petroleum said Monday appraisal drilling had confirmed a sizable oil and gas find near the North Sea Fram field, which feeds Troll oil flows.",
        "bookmarks_location": "Location",
        "bookmarks_date": "MM/DD/YYYY",
        "bookmarks_time": "11:11"
    },
    {
        "_id": 4,
        "bookmarks_title": "Norway newcomer Wellesley confirms North Sea oil and gas find.",
        "bookmarks_para": "Norwegian independent Wellesley Petroleum said Monday appraisal drilling had confirmed a sizable oil and gas find near the North Sea Fram field, which feeds Troll oil flows.",
        "bookmarks_location": "Location",
        "bookmarks_date": "MM/DD/YYYY",
        "bookmarks_time": "11:11"
    },
    {
        "_id": 5,
        "bookmarks_title": "Norway newcomer Wellesley confirms North Sea oil and gas find.",
        "bookmarks_para": "Norwegian independent Wellesley Petroleum said Monday appraisal drilling had confirmed a sizable oil and gas find near the North Sea Fram field, which feeds Troll oil flows.",
        "bookmarks_location": "Location",
        "bookmarks_date": "MM/DD/YYYY",
        "bookmarks_time": "11:11"
    },
    {
        "_id": 6,
        "bookmarks_title": "Norway newcomer Wellesley confirms North Sea oil and gas find.",
        "bookmarks_para": "Norwegian independent Wellesley Petroleum said Monday appraisal drilling had confirmed a sizable oil and gas find near the North Sea Fram field, which feeds Troll oil flows.",
        "bookmarks_location": "Location",
        "bookmarks_date": "MM/DD/YYYY",
        "bookmarks_time": "11:11"
    },
    {
        "_id": 7,
        "bookmarks_title": "Norway newcomer Wellesley confirms North Sea oil and gas find.",
        "bookmarks_para": "Norwegian independent Wellesley Petroleum said Monday appraisal drilling had confirmed a sizable oil and gas find near the North Sea Fram field, which feeds Troll oil flows.",
        "bookmarks_location": "Location",
        "bookmarks_date": "MM/DD/YYYY",
        "bookmarks_time": "11:11"
    },
    {
        "_id": 8,
        "bookmarks_title": "Norway newcomer Wellesley confirms North Sea oil and gas find.",
        "bookmarks_para": "Norwegian independent Wellesley Petroleum said Monday appraisal drilling had confirmed a sizable oil and gas find near the North Sea Fram field, which feeds Troll oil flows.",
        "bookmarks_location": "Location",
        "bookmarks_date": "MM/DD/YYYY",
        "bookmarks_time": "11:11"
    },
    {
        "_id": 9,
        "bookmarks_title": "Norway newcomer Wellesley confirms North Sea oil and gas find.",
        "bookmarks_para": "Norwegian independent Wellesley Petroleum said Monday appraisal drilling had confirmed a sizable oil and gas find near the North Sea Fram field, which feeds Troll oil flows.",
        "bookmarks_location": "Location",
        "bookmarks_date": "MM/DD/YYYY",
        "bookmarks_time": "11:11"
    },
    {
        "_id": 10,
        "bookmarks_title": "Norway newcomer Wellesley confirms North Sea oil and gas find.",
        "bookmarks_para": "Norwegian independent Wellesley Petroleum said Monday appraisal drilling had confirmed a sizable oil and gas find near the North Sea Fram field, which feeds Troll oil flows.",
        "bookmarks_location": "Location",
        "bookmarks_date": "MM/DD/YYYY",
        "bookmarks_time": "11:11"
    },
    {
        "_id": 11,
        "bookmarks_title": "Norway newcomer Wellesley confirms North Sea oil and gas find.",
        "bookmarks_para": "Norwegian independent Wellesley Petroleum said Monday appraisal drilling had confirmed a sizable oil and gas find near the North Sea Fram field, which feeds Troll oil flows.",
        "bookmarks_location": "Location",
        "bookmarks_date": "MM/DD/YYYY",
        "bookmarks_time": "11:11"
    }
]